%YAML 1.1
%TAG !u! tag:unity3d.com,2011:
--- !u!78 &1
TagManager:
  serializedVersion: 2
  tags:
  - Enemigo
  - coleccionable
  - +vida
  - zanja
  - Enemigo2
  - Enemigo3
  - Enemigo4
  - jugador
  - Enemigo5
  - ganaste
  layers:
  - Default
  - TransparentFX
  - Ignore Raycast
  - Jugador
  - Water
  - UI
  - 
  - 
  - 
  - 
  - 
  - 
  - 
  - 
  - 
  - 
  - 
  - 
  - 
  - 
  - 
  - 
  - 
  - 
  - 
  - 
  - 
  - 
  - 
  - 
  - 
  - 
  m_SortingLayers:
  - name: Default
    uniqueID: 0
    locked: 0
